[gd_scene load_steps=4 format=2]

[ext_resource path="res://player.gd" type="Script" id=1]
[ext_resource path="res://segment.png" type="Texture" id=2]

[sub_resource type="RectangleShape2D" id=1]

custom_solver_bias = 0.0
extents = Vector2( 3, 3 )

[node name="Player" type="Node"]

script = ExtResource( 1 )

[node name="Head" type="Area2D" parent="." index="0"]

input_pickable = true
gravity_vec = Vector2( 0, 1 )
gravity = 98.0
linear_damp = 0.1
angular_damp = 1.0
audio_bus_override = false
audio_bus_name = "Master"
_sections_unfolded = [ "Transform" ]
__meta__ = {
"_edit_lock_": true
}

[node name="CollisionShape2D" type="CollisionShape2D" parent="Head" index="0"]

position = Vector2( 4, 4 )
shape = SubResource( 1 )
_sections_unfolded = [ "Transform" ]

[node name="Sprite" type="Sprite" parent="Head" index="1"]

texture = ExtResource( 2 )
centered = false
_sections_unfolded = [ "Offset", "Transform" ]
__meta__ = {
"_edit_lock_": true
}

[node name="Sprite2" type="Sprite" parent="." index="1"]

position = Vector2( -8, 0 )
texture = ExtResource( 2 )
centered = false
_sections_unfolded = [ "Transform" ]
__meta__ = {
"_edit_lock_": true
}

[node name="Sprite3" type="Sprite" parent="." index="2"]

position = Vector2( -16, 0 )
texture = ExtResource( 2 )
centered = false
_sections_unfolded = [ "Transform" ]
__meta__ = {
"_edit_lock_": true
}

[node name="Sprite4" type="Sprite" parent="." index="3"]

position = Vector2( -24, 0 )
texture = ExtResource( 2 )
centered = false
_sections_unfolded = [ "Transform" ]
__meta__ = {
"_edit_lock_": true
}

[connection signal="area_entered" from="Head" to="." method="_on_area_entered"]


